<svg width="40" height="40" viewBox="0 0 40 40" fill="none" xmlns="http://www.w3.org/2000/svg">
<circle cx="20" cy="20" r="20" fill="white"/>
<path d="M20 9.5C20.9946 9.5 21.9484 9.89509 22.6517 10.5983C23.3549 11.3016 23.75 12.2554 23.75 13.25V14H16.25V13.25C16.25 12.2554 16.6451 11.3016 17.3483 10.5983C18.0516 9.89509 19.0054 9.5 20 9.5ZM25.25 14V13.25C25.25 11.8576 24.6969 10.5223 23.7123 9.53769C22.7277 8.55312 21.3924 8 20 8C18.6076 8 17.2723 8.55312 16.2877 9.53769C15.3031 10.5223 14.75 11.8576 14.75 13.25V14H9.5V29C9.5 29.7956 9.81607 30.5587 10.3787 31.1213C10.9413 31.6839 11.7044 32 12.5 32H27.5C28.2956 32 29.0587 31.6839 29.6213 31.1213C30.1839 30.5587 30.5 29.7956 30.5 29V14H25.25Z" fill="black"/>
</svg>
