<?xml version="1.0" encoding="utf-8"?>
<!-- Generator: Adobe Illustrator 16.0.0, SVG Export Plug-In . SVG Version: 6.00 Build 0)  -->
<!DOCTYPE svg PUBLIC "-//W3C//DTD SVG 1.1//EN" "http://www.w3.org/Graphics/SVG/1.1/DTD/svg11.dtd">
<svg version="1.1" id="Capa_1" xmlns="http://www.w3.org/2000/svg" xmlns:xlink="http://www.w3.org/1999/xlink" x="0px" y="0px"
	 width="487.156px" height="487.156px" viewBox="0 0 487.156 487.156" enable-background="new 0 0 487.156 487.156"
	 xml:space="preserve">
<g>
	<g>
		<polygon fill="#676A70" points="2.166,374.596 2.166,487.156 484.99,487.156 484.99,371.635 440.559,371.635 440.559,442.725 
			46.598,442.725 46.598,374.596 		"/>
		<path fill="#676A70" d="M259.924,397.941l114.615-173.792l-39.784,0.03C334.604,24.684,140.283,0,140.283,0
			s44.42,62.208,44.544,224.292l-39.784,0.029L259.924,397.941z"/>
	</g>
</g>
</svg>
