<svg width="42" height="40" viewBox="0 0 42 40" fill="none" xmlns="http://www.w3.org/2000/svg">
<g clip-path="url(#clip0_139_34)">
<path d="M20.8881 40C15.3482 40 10.0353 37.8929 6.11798 34.1421C2.20069 30.3914 -1.0338e-05 25.3043 -1.05699e-05 20C-1.08017e-05 14.6957 2.20069 9.60859 6.11797 5.85787C10.0353 2.10714 15.3482 1.1552e-06 20.8881 9.13048e-07C26.428 6.70893e-07 31.7409 2.10714 35.6582 5.85786C39.5755 9.60859 41.7762 14.6957 41.7762 20C41.7762 25.3043 39.5755 30.3914 35.6582 34.1421C31.7409 37.8929 26.428 40 20.8881 40V40ZM30.0267 21.25C30.3729 21.25 30.705 21.1183 30.9498 20.8839C31.1946 20.6495 31.3322 20.3315 31.3322 20C31.3322 19.6685 31.1946 19.3505 30.9498 19.1161C30.705 18.8817 30.3729 18.75 30.0267 18.75L14.901 18.75L20.5069 13.385C20.752 13.1503 20.8898 12.8319 20.8898 12.5C20.8898 12.1681 20.752 11.8497 20.5069 11.615C20.2618 11.3803 19.9293 11.2484 19.5826 11.2484C19.2359 11.2484 18.9034 11.3803 18.6583 11.615L10.8253 19.115C10.7037 19.2311 10.6072 19.3691 10.5414 19.5209C10.4756 19.6728 10.4417 19.8356 10.4417 20C10.4417 20.1644 10.4756 20.3272 10.5414 20.4791C10.6072 20.6309 10.7037 20.7689 10.8253 20.885L18.6583 28.385C18.9034 28.6197 19.2359 28.7516 19.5826 28.7516C19.9293 28.7516 20.2618 28.6197 20.5069 28.385C20.752 28.1503 20.8898 27.8319 20.8898 27.5C20.8898 27.1681 20.752 26.8497 20.5069 26.615L14.901 21.25L30.0267 21.25Z" fill="#6C4E4F"/>
</g>
<defs>
<clipPath id="clip0_139_34">
<rect width="40" height="41.7762" fill="white" transform="translate(41.7762) rotate(90)"/>
</clipPath>
</defs>
</svg>
