<svg width="50" height="50" viewBox="0 0 50 50" fill="none" xmlns="http://www.w3.org/2000/svg">
<g opacity="0.4">
<circle cx="25" cy="25" r="25" transform="rotate(-180 25 25)" fill="#EAD4FF"/>
<path d="M28.75 17.5L21.25 25L28.75 32.5" stroke="#633194" stroke-width="3" stroke-linecap="round" stroke-linejoin="round"/>
</g>
</svg>
