<svg width="106" height="34" viewBox="0 0 106 34" fill="none" xmlns="http://www.w3.org/2000/svg">
<g clip-path="url(#clip0_724_7339)">
<path d="M101.35 29.8481L53.0002 4.35182L4.65078 29.8481" stroke="#633194" stroke-width="8" stroke-linecap="round" stroke-linejoin="round"/>
</g>
<defs>
<clipPath id="clip0_724_7339">
<rect width="106" height="34" fill="white" transform="translate(106 34) rotate(-180)"/>
</clipPath>
</defs>
</svg>
