<svg width="107" height="35" viewBox="0 0 107 35" fill="none" xmlns="http://www.w3.org/2000/svg">
<g clip-path="url(#clip0_724_7498)">
<path d="M101.53 4.61035L53.1809 30.1067L4.83144 4.61036" stroke="#633194" stroke-width="8" stroke-linecap="round" stroke-linejoin="round"/>
</g>
<defs>
<clipPath id="clip0_724_7498">
<rect width="106" height="34" fill="white" transform="matrix(-1 8.74228e-08 8.22677e-08 1 106.181 0.458496)"/>
</clipPath>
</defs>
</svg>
