<svg width="70" height="70" viewBox="0 0 70 70" fill="none" xmlns="http://www.w3.org/2000/svg">
<path d="M70 50C70 61.0457 61.0457 70 50 70L0 70L-6.11959e-06 6.11959e-06L50 1.74846e-06C61.0457 7.8281e-07 70 8.95431 70 20L70 50Z" fill="#633194"/>
<path d="M30.9167 43.4167L20.5 33L30.9167 22.5833" stroke="white" stroke-width="4" stroke-linecap="round" stroke-linejoin="round"/>
<path d="M45.5 43.4167L35.0833 33L45.5 22.5833" stroke="white" stroke-width="4" stroke-linecap="round" stroke-linejoin="round"/>
</svg>
