<svg width="131" height="131" viewBox="0 0 131 131" fill="none" xmlns="http://www.w3.org/2000/svg">
<circle cx="69.3164" cy="62.1211" r="40" fill="white"/>
<g filter="url(#filter0_dd_724_7447)">
<circle cx="69.3169" cy="62.1211" r="31.3725" fill="white"/>
</g>
<mask id="path-3-inside-1_724_7447" fill="white">
<path d="M68.4011 51.2682C68.4011 49.7985 69.5926 48.607 71.0623 48.607H86.4978C87.9676 48.607 89.1591 49.7985 89.1591 51.2682V75.8775C89.1591 77.3473 87.9676 78.5388 86.4978 78.5388H71.0623C69.5926 78.5388 68.4011 77.3473 68.4011 75.8775V51.2682Z"/>
<path d="M48.9736 50.8614C48.9736 49.3916 50.1651 48.2001 51.6349 48.2001H86.4978C87.9676 48.2001 89.1591 49.3916 89.1591 50.8614V75.4707C89.1591 76.9404 87.9676 78.1319 86.4978 78.1319H51.6349C50.1651 78.1319 48.9736 76.9404 48.9736 75.4707V50.8614Z"/>
<path d="M67.7357 46.666H70.397V79.666H67.7357V46.666Z"/>
</mask>
<path d="M68.4011 51.2682C68.4011 49.7985 69.5926 48.607 71.0623 48.607H86.4978C87.9676 48.607 89.1591 49.7985 89.1591 51.2682V75.8775C89.1591 77.3473 87.9676 78.5388 86.4978 78.5388H71.0623C69.5926 78.5388 68.4011 77.3473 68.4011 75.8775V51.2682Z" fill="#633194"/>
<path d="M67.7357 46.666H70.397V79.666H67.7357V46.666Z" fill="#633194"/>
<path d="M67.7357 46.666V44.666H65.7357V46.666H67.7357ZM70.397 46.666H72.397V44.666H70.397V46.666ZM70.397 79.666V81.666H72.397V79.666H70.397ZM67.7357 79.666H65.7357V81.666H67.7357V79.666ZM71.0623 50.607H86.4978V46.607H71.0623V50.607ZM87.1591 51.2682V75.8775H91.1591V51.2682H87.1591ZM86.4978 76.5388H71.0623V80.5388H86.4978V76.5388ZM70.4011 75.8775V51.2682H66.4011V75.8775H70.4011ZM71.0623 76.5388C70.6971 76.5388 70.4011 76.2427 70.4011 75.8775H66.4011C66.4011 78.4519 68.488 80.5388 71.0623 80.5388V76.5388ZM87.1591 75.8775C87.1591 76.2427 86.863 76.5388 86.4978 76.5388V80.5388C89.0722 80.5388 91.1591 78.4519 91.1591 75.8775H87.1591ZM86.4978 50.607C86.863 50.607 87.1591 50.903 87.1591 51.2682H91.1591C91.1591 48.6939 89.0722 46.607 86.4978 46.607V50.607ZM71.0623 46.607C68.488 46.607 66.4011 48.6939 66.4011 51.2682H70.4011C70.4011 50.903 70.6971 50.607 71.0623 50.607V46.607ZM51.6349 50.2001H86.4978V46.2001H51.6349V50.2001ZM87.1591 50.8614V75.4707H91.1591V50.8614H87.1591ZM86.4978 76.1319H51.6349V80.1319H86.4978V76.1319ZM50.9736 75.4707V50.8614H46.9736V75.4707H50.9736ZM51.6349 76.1319C51.2697 76.1319 50.9736 75.8359 50.9736 75.4707H46.9736C46.9736 78.045 49.0606 80.1319 51.6349 80.1319V76.1319ZM87.1591 75.4707C87.1591 75.8359 86.863 76.1319 86.4978 76.1319V80.1319C89.0722 80.1319 91.1591 78.045 91.1591 75.4707H87.1591ZM86.4978 50.2001C86.863 50.2001 87.1591 50.4962 87.1591 50.8614H91.1591C91.1591 48.287 89.0722 46.2001 86.4978 46.2001V50.2001ZM51.6349 46.2001C49.0606 46.2001 46.9736 48.287 46.9736 50.8614H50.9736C50.9736 50.4962 51.2697 50.2001 51.6349 50.2001V46.2001ZM67.7357 48.666H70.397V44.666H67.7357V48.666ZM68.397 46.666V79.666H72.397V46.666H68.397ZM70.397 77.666H67.7357V81.666H70.397V77.666ZM69.7357 79.666V46.666H65.7357V79.666H69.7357Z" fill="#633194" mask="url(#path-3-inside-1_724_7447)"/>
<defs>
<filter id="filter0_dd_724_7447" x="0.944336" y="0.748535" width="129.745" height="129.745" filterUnits="userSpaceOnUse" color-interpolation-filters="sRGB">
<feFlood flood-opacity="0" result="BackgroundImageFix"/>
<feColorMatrix in="SourceAlpha" type="matrix" values="0 0 0 0 0 0 0 0 0 0 0 0 0 0 0 0 0 0 127 0" result="hardAlpha"/>
<feOffset dx="-7"/>
<feGaussianBlur stdDeviation="15"/>
<feComposite in2="hardAlpha" operator="out"/>
<feColorMatrix type="matrix" values="0 0 0 0 0 0 0 0 0 0 0 0 0 0 0 0 0 0 0.18 0"/>
<feBlend mode="normal" in2="BackgroundImageFix" result="effect1_dropShadow_724_7447"/>
<feColorMatrix in="SourceAlpha" type="matrix" values="0 0 0 0 0 0 0 0 0 0 0 0 0 0 0 0 0 0 127 0" result="hardAlpha"/>
<feOffset dy="7"/>
<feGaussianBlur stdDeviation="15"/>
<feComposite in2="hardAlpha" operator="out"/>
<feColorMatrix type="matrix" values="0 0 0 0 0 0 0 0 0 0 0 0 0 0 0 0 0 0 0.18 0"/>
<feBlend mode="normal" in2="effect1_dropShadow_724_7447" result="effect2_dropShadow_724_7447"/>
<feBlend mode="normal" in="SourceGraphic" in2="effect2_dropShadow_724_7447" result="shape"/>
</filter>
</defs>
</svg>
