<?xml version="1.0" encoding="utf-8"?>
<!-- Generator: Adobe Illustrator 16.0.0, SVG Export Plug-In . SVG Version: 6.00 Build 0)  -->
<!DOCTYPE svg PUBLIC "-//W3C//DTD SVG 1.1//EN" "http://www.w3.org/Graphics/SVG/1.1/DTD/svg11.dtd">
<svg version="1.1" id="Capa_1" xmlns="http://www.w3.org/2000/svg" xmlns:xlink="http://www.w3.org/1999/xlink" x="0px" y="0px"
	 width="512px" height="512px" viewBox="0 0 512 512" enable-background="new 0 0 512 512" xml:space="preserve">
<path display="none" fill="#F9F9F9" d="M402.285,292.57c-29.507,0-56.211,11.84-75.948,30.854l-108.252-54.136
	c0.541-4.405,1.344-8.739,1.344-13.288s-0.803-8.881-1.344-13.288l108.252-54.136c19.735,19.013,46.441,30.853,75.948,30.853
	c60.5,0,109.715-49.213,109.715-109.714S462.785,0,402.285,0C341.786,0,292.57,49.213,292.57,109.714
	c0,4.549,0.805,8.881,1.345,13.289l-108.251,54.136c-19.736-19.013-46.442-30.853-75.949-30.853C49.215,146.286,0,195.5,0,256
	s49.213,109.715,109.714,109.715c29.507,0,56.212-11.84,75.949-30.854l108.251,54.136c-0.54,4.405-1.344,8.739-1.344,13.288
	c0,60.5,49.214,109.715,109.714,109.715C462.786,512,512,462.786,512,402.285C512,341.785,462.785,292.57,402.285,292.57z"/>
<ellipse display="none" fill="#F9F9F9" cx="109" cy="245.5" rx="31.5" ry="32"/>
<ellipse display="none" fill="#F9F9F9" cx="375" cy="96.5" rx="31.5" ry="32"/>
<ellipse display="none" fill="#F9F9F9" cx="375" cy="383.5" rx="31.5" ry="32"/>
<polygon fill="#FFFFFF" points="330.994,113.988 293.17,141.361 392.14,219.087 47.309,219.087 47.309,219.087 47.309,258.611 
	392.14,258.611 293.17,336.338 330.994,363.711 485.102,238.851 "/>
</svg>
