<svg width="58" height="58" viewBox="0 0 58 58" fill="none" xmlns="http://www.w3.org/2000/svg">
<circle cx="29" cy="29" r="29" fill="#D71951"/>
<path d="M41 37V33C41 32.7348 40.8946 32.4804 40.7071 32.2929C40.5196 32.1054 40.2652 32 40 32C39.7348 32 39.4804 32.1054 39.2929 32.2929C39.1054 32.4804 39 32.7348 39 33V37C39 37.2652 38.8946 37.5196 38.7071 37.7071C38.5196 37.8946 38.2652 38 38 38H20C19.7348 38 19.4804 37.8946 19.2929 37.7071C19.1054 37.5196 19 37.2652 19 37V33C19 32.7348 18.8946 32.4804 18.7071 32.2929C18.5196 32.1054 18.2652 32 18 32C17.7348 32 17.4804 32.1054 17.2929 32.2929C17.1054 32.4804 17 32.7348 17 33V37C17 37.7956 17.3161 38.5587 17.8787 39.1213C18.4413 39.6839 19.2044 40 20 40H38C38.7956 40 39.5587 39.6839 40.1213 39.1213C40.6839 38.5587 41 37.7956 41 37V37ZM34.62 31.78L29.62 35.78C29.4435 35.9195 29.225 35.9954 29 35.9954C28.775 35.9954 28.5565 35.9195 28.38 35.78L23.38 31.78C23.1978 31.608 23.0868 31.3739 23.069 31.1241C23.0511 30.8742 23.1277 30.6267 23.2836 30.4306C23.4395 30.2344 23.6633 30.104 23.9108 30.065C24.1583 30.026 24.4114 30.0813 24.62 30.22L28 32.92V19C28 18.7348 28.1054 18.4804 28.2929 18.2929C28.4804 18.1054 28.7348 18 29 18C29.2652 18 29.5196 18.1054 29.7071 18.2929C29.8946 18.4804 30 18.7348 30 19V32.92L33.38 30.22C33.4807 30.1249 33.6 30.0518 33.7305 30.0053C33.8609 29.9588 33.9996 29.9399 34.1377 29.9497C34.2758 29.9596 34.4104 29.9981 34.5329 30.0626C34.6553 30.1272 34.7631 30.2166 34.8492 30.325C34.9354 30.4334 34.9981 30.5585 35.0334 30.6924C35.0687 30.8263 35.0758 30.966 35.0542 31.1028C35.0327 31.2396 34.983 31.3704 34.9082 31.487C34.8335 31.6036 34.7353 31.7033 34.62 31.78V31.78Z" fill="white"/>
</svg>
