<svg width="64" height="64" viewBox="0 0 64 64" fill="none" xmlns="http://www.w3.org/2000/svg">
<g opacity="0.4">
<circle cx="32" cy="32" r="32" fill="#EAD4FF"/>
<path d="M27.2 41.6L36.8 32L27.2 22.4" stroke="#633194" stroke-width="3" stroke-linecap="round" stroke-linejoin="round"/>
</g>
</svg>
