<svg width="119" height="119" viewBox="0 0 119 119" fill="none" xmlns="http://www.w3.org/2000/svg">
<circle cx="63" cy="56" r="32" fill="white"/>
<g filter="url(#filter0_dd)">
<circle cx="63" cy="56" r="25.098" fill="white"/>
</g>
<path d="M74.7124 63.3203C74.7124 63.875 74.4921 64.4069 74.0998 64.7992C73.7076 65.1914 73.1756 65.4118 72.6209 65.4118H53.7974C53.2427 65.4118 52.7107 65.1914 52.3185 64.7992C51.9263 64.4069 51.7059 63.875 51.7059 63.3203V51.817C51.7059 51.2623 51.9263 50.7303 52.3185 50.3381C52.7107 49.9458 53.2427 49.7255 53.7974 49.7255H57.9804L60.0719 46.5882H66.3464L68.4379 49.7255H72.6209C73.1756 49.7255 73.7076 49.9458 74.0998 50.3381C74.4921 50.7303 74.7124 51.2623 74.7124 51.817V63.3203Z" stroke="#633194" stroke-width="2" stroke-linecap="round" stroke-linejoin="round"/>
<path d="M62.7908 61.2287C65.101 61.2287 66.9738 59.3559 66.9738 57.0457C66.9738 54.7355 65.101 52.8627 62.7908 52.8627C60.4806 52.8627 58.6078 54.7355 58.6078 57.0457C58.6078 59.3559 60.4806 61.2287 62.7908 61.2287Z" stroke="#633194" stroke-width="2" stroke-linecap="round" stroke-linejoin="round"/>
<defs>
<filter id="filter0_dd" x="0.901962" y="0.901947" width="117.196" height="117.196" filterUnits="userSpaceOnUse" color-interpolation-filters="sRGB">
<feFlood flood-opacity="0" result="BackgroundImageFix"/>
<feColorMatrix in="SourceAlpha" type="matrix" values="0 0 0 0 0 0 0 0 0 0 0 0 0 0 0 0 0 0 127 0" result="hardAlpha"/>
<feOffset dx="-7"/>
<feGaussianBlur stdDeviation="15"/>
<feComposite in2="hardAlpha" operator="out"/>
<feColorMatrix type="matrix" values="0 0 0 0 0 0 0 0 0 0 0 0 0 0 0 0 0 0 0.18 0"/>
<feBlend mode="normal" in2="BackgroundImageFix" result="effect1_dropShadow"/>
<feColorMatrix in="SourceAlpha" type="matrix" values="0 0 0 0 0 0 0 0 0 0 0 0 0 0 0 0 0 0 127 0" result="hardAlpha"/>
<feOffset dy="7"/>
<feGaussianBlur stdDeviation="15"/>
<feComposite in2="hardAlpha" operator="out"/>
<feColorMatrix type="matrix" values="0 0 0 0 0 0 0 0 0 0 0 0 0 0 0 0 0 0 0.18 0"/>
<feBlend mode="normal" in2="effect1_dropShadow" result="effect2_dropShadow"/>
<feBlend mode="normal" in="SourceGraphic" in2="effect2_dropShadow" result="shape"/>
</filter>
</defs>
</svg>
