<svg width="56" height="56" viewBox="0 0 56 56" fill="none" xmlns="http://www.w3.org/2000/svg">
<circle cx="28" cy="28" r="28" fill="#633194"/>
<path d="M39 18L19 38" stroke="white" stroke-width="3" stroke-linecap="round" stroke-linejoin="round"/>
<path d="M19 18L39 38" stroke="white" stroke-width="3" stroke-linecap="round" stroke-linejoin="round"/>
</svg>
