<svg width="64" height="64" viewBox="0 0 64 64" fill="none" xmlns="http://www.w3.org/2000/svg">
<circle cx="32" cy="32" r="32" fill="#633194"/>
<path d="M43.2857 20.4286L20.4286 43.2857" stroke="white" stroke-width="3" stroke-linecap="round" stroke-linejoin="round"/>
<path d="M20.4286 20.4286L43.2857 43.2857" stroke="white" stroke-width="3" stroke-linecap="round" stroke-linejoin="round"/>
</svg>
