<svg width="131" height="130" viewBox="0 0 131 130" fill="none" xmlns="http://www.w3.org/2000/svg">
<ellipse cx="68.9277" cy="61.5757" rx="40" ry="39.5" fill="white"/>
<g filter="url(#filter0_dd_820_940)">
<ellipse cx="68.9292" cy="61.5756" rx="31.3725" ry="30.9804" fill="white"/>
</g>
<path d="M82.6348 65.351L80.46 63.4916C80.5629 62.8607 80.616 62.2166 80.616 61.5725C80.616 60.9283 80.5629 60.2842 80.46 59.6533L82.6348 57.7939C82.7988 57.6535 82.9162 57.4665 82.9714 57.2577C83.0265 57.0489 83.0168 56.8283 82.9436 56.6252L82.9137 56.5389C82.315 54.8655 81.4184 53.3143 80.2674 51.9602L80.2076 51.8904C80.068 51.7262 79.8819 51.6082 79.6738 51.5519C79.4658 51.4956 79.2456 51.5037 79.0422 51.575L76.3428 52.5346C75.3467 51.7178 74.2344 51.0736 73.0324 50.6221L72.5111 47.7998C72.4718 47.5874 72.3688 47.3921 72.2158 47.2397C72.0628 47.0872 71.867 46.985 71.6545 46.9465L71.5649 46.9299C69.835 46.6178 68.0154 46.6178 66.2856 46.9299L66.1959 46.9465C65.9834 46.985 65.7876 47.0872 65.6346 47.2397C65.4816 47.3921 65.3786 47.5874 65.3393 47.7998L64.8147 50.6354C63.6223 51.087 62.5119 51.7308 61.5275 52.5412L58.8082 51.575C58.6049 51.5031 58.3845 51.4948 58.1763 51.5511C57.9682 51.6074 57.7821 51.7258 57.6428 51.8904L57.583 51.9602C56.4333 53.3153 55.537 54.8662 54.9367 56.5389L54.9068 56.6252C54.7574 57.0402 54.8803 57.5051 55.2156 57.7939L57.417 59.6732C57.3141 60.2975 57.2643 60.935 57.2643 61.5691C57.2643 62.2066 57.3141 62.8441 57.417 63.465L55.2156 65.3443C55.0516 65.4848 54.9342 65.6718 54.879 65.8806C54.8239 66.0893 54.8336 66.31 54.9068 66.5131L54.9367 66.5994C55.5377 68.2729 56.4275 69.8168 57.583 71.1781L57.6428 71.2479C57.7824 71.412 57.9685 71.5301 58.1766 71.5864C58.3846 71.6427 58.6048 71.6346 58.8082 71.5633L61.5275 70.5971C62.517 71.4105 63.6227 72.0547 64.8147 72.5029L65.3393 75.3385C65.3786 75.5508 65.4816 75.7462 65.6346 75.8986C65.7876 76.051 65.9834 76.1533 66.1959 76.1918L66.2856 76.2084C68.0313 76.5222 69.8191 76.5222 71.5649 76.2084L71.6545 76.1918C71.867 76.1533 72.0628 76.051 72.2158 75.8986C72.3688 75.7462 72.4718 75.5508 72.5111 75.3385L73.0324 72.5162C74.2339 72.0658 75.3525 71.4196 76.3428 70.6037L79.0422 71.5633C79.2455 71.6352 79.4659 71.6435 79.6741 71.5872C79.8822 71.5308 80.0683 71.4125 80.2076 71.2479L80.2674 71.1781C81.4229 69.8135 82.3127 68.2729 82.9137 66.5994L82.9436 66.5131C83.093 66.1047 82.9701 65.6398 82.6348 65.351V65.351ZM78.1025 60.0451C78.1856 60.5465 78.2287 61.0611 78.2287 61.5758C78.2287 62.0904 78.1856 62.6051 78.1025 63.1064L77.8834 64.4379L80.3637 66.5596C79.9877 67.4258 79.5131 68.2458 78.9492 69.0033L75.868 67.9109L74.8254 68.7676C74.0318 69.4184 73.1486 69.9297 72.1924 70.2883L70.9274 70.7631L70.333 73.9838C69.3953 74.09 68.4485 74.09 67.5107 73.9838L66.9164 70.7564L65.6613 70.275C64.715 69.9164 63.8352 69.4051 63.0482 68.7576L62.0057 67.8977L58.9045 69C58.34 68.2396 57.8686 67.4195 57.49 66.5563L59.9969 64.4146L59.7811 63.0865C59.7014 62.5918 59.6582 62.0805 59.6582 61.5758C59.6582 61.0678 59.6981 60.5598 59.7811 60.065L59.9969 58.7369L57.49 56.5953C57.8652 55.7287 58.34 54.9119 58.9045 54.1516L62.0057 55.2539L63.0482 54.3939C63.8352 53.7465 64.715 53.2352 65.6613 52.8766L66.9197 52.4018L67.5141 49.1744C68.4471 49.0682 69.4 49.0682 70.3363 49.1744L70.9307 52.3951L72.1957 52.8699C73.1486 53.2285 74.0352 53.7398 74.8287 54.3906L75.8713 55.2473L78.9525 54.1549C79.517 54.9152 79.9885 55.7354 80.367 56.5986L77.8867 58.7203L78.1025 60.0451ZM68.9285 55.4C65.7012 55.4 63.0848 58.0164 63.0848 61.2437C63.0848 64.4711 65.7012 67.0875 68.9285 67.0875C72.1559 67.0875 74.7723 64.4711 74.7723 61.2437C74.7723 58.0164 72.1559 55.4 68.9285 55.4ZM71.5582 63.8734C71.2133 64.2193 70.8034 64.4936 70.3521 64.6805C69.9008 64.8674 69.417 64.9633 68.9285 64.9625C67.9357 64.9625 67.0027 64.574 66.2988 63.8734C65.9529 63.5285 65.6786 63.1186 65.4917 62.6673C65.3048 62.216 65.209 61.7322 65.2098 61.2437C65.2098 60.251 65.5982 59.318 66.2988 58.6141C67.0027 57.9102 67.9357 57.525 68.9285 57.525C69.9213 57.525 70.8543 57.9102 71.5582 58.6141C71.9041 58.959 72.1784 59.3689 72.3653 59.8202C72.5522 60.2715 72.648 60.7553 72.6473 61.2437C72.6473 62.2365 72.2588 63.1695 71.5582 63.8734Z" fill="#633194"/>
<defs>
<filter id="filter0_dd_820_940" x="0.556641" y="0.595215" width="129.744" height="128.961" filterUnits="userSpaceOnUse" color-interpolation-filters="sRGB">
<feFlood flood-opacity="0" result="BackgroundImageFix"/>
<feColorMatrix in="SourceAlpha" type="matrix" values="0 0 0 0 0 0 0 0 0 0 0 0 0 0 0 0 0 0 127 0" result="hardAlpha"/>
<feOffset dx="-7"/>
<feGaussianBlur stdDeviation="15"/>
<feComposite in2="hardAlpha" operator="out"/>
<feColorMatrix type="matrix" values="0 0 0 0 0 0 0 0 0 0 0 0 0 0 0 0 0 0 0.18 0"/>
<feBlend mode="normal" in2="BackgroundImageFix" result="effect1_dropShadow_820_940"/>
<feColorMatrix in="SourceAlpha" type="matrix" values="0 0 0 0 0 0 0 0 0 0 0 0 0 0 0 0 0 0 127 0" result="hardAlpha"/>
<feOffset dy="7"/>
<feGaussianBlur stdDeviation="15"/>
<feComposite in2="hardAlpha" operator="out"/>
<feColorMatrix type="matrix" values="0 0 0 0 0 0 0 0 0 0 0 0 0 0 0 0 0 0 0.18 0"/>
<feBlend mode="normal" in2="effect1_dropShadow_820_940" result="effect2_dropShadow_820_940"/>
<feBlend mode="normal" in="SourceGraphic" in2="effect2_dropShadow_820_940" result="shape"/>
</filter>
</defs>
</svg>
